{
    "name": "Tester",
    "fields": [
        {
            "fieldName": "firstName",
            "fieldType": "String",
            "fieldValidateRules": [
                "required"
            ]
        },
        {
            "fieldName": "lastName",
            "fieldType": "String",
            "fieldValidateRules": [
                "required"
            ]
        },
        {
            "fieldName": "country",
            "fieldType": "Country",
            "fieldValues": "GB,BE,PL",
            "fieldValidateRules": [
                "required"
            ]
        },
        {
            "fieldName": "lastLogin",
            "fieldType": "LocalDate"
        }
    ],
    "relationships": [
        {
            "relationshipType": "one-to-many",
            "otherEntityName": "bug",
            "otherEntityRelationshipName": "tester",
            "relationshipName": "tester"
        },
        {
            "relationshipType": "many-to-many",
            "otherEntityName": "device",
            "otherEntityRelationshipName": "tester",
            "relationshipName": "device",
            "otherEntityField": "id",
            "ownerSide": false
        }
    ],
    "changelogDate": "20200118152350",
    "javadoc": "The Tester entity.",
    "entityTableName": "tester",
    "dto": "mapstruct",
    "pagination": "no",
    "service": "serviceClass",
    "jpaMetamodelFiltering": false,
    "fluentMethods": true,
    "readOnly": false,
    "clientRootFolder": "",
    "applications": "*"
}
